codigoMateria;codigoEstudiante;cuerpoTrabajo;cantidadHojas
3;115100;contenidoXXX;1
2;115101;contenidoXXX;4
1;115102;contenidoXXX;10
2;115103;contenidoXXX;3
2;115104;contenidoXXX;4
1;115105;contenidoXXX;3
1;115106;contenidoXXX;2
2;115107;contenidoXXX;4
1;115108;contenidoXXX;5
3;115109;contenidoXXX;7
1;115110;contenidoXXX;5
2;115111;contenidoXXX;1
3;115112;contenidoXXX;2
2;115113;contenidoXXX;9
1;115114;contenidoXXX;1
1;115115;contenidoXXX;1
3;115116;contenidoXXX;6
3;115117;contenidoXXX;5
3;115118;contenidoXXX;9
1;115119;contenidoXXX;8
3;115120;contenidoXXX;4
2;115121;contenidoXXX;2
2;115122;contenidoXXX;10
2;115123;contenidoXXX;10
1;115124;contenidoXXX;4
3;115125;contenidoXXX;8
2;115126;contenidoXXX;8
2;115127;contenidoXXX;9
2;115100;contenidoXXX;10
2;115101;contenidoXXX;1
3;115102;contenidoXXX;10
2;115103;contenidoXXX;9
3;115100;contenidoXXX;3
1;115101;contenidoXXX;1
2;115102;contenidoXXX;10
3;115103;contenidoXXX;1
2;115100;contenidoXXX;5
3;115101;contenidoXXX;2
1;115102;contenidoXXX;2
1;115103;contenidoXXX;4
3;115111;contenidoXXX;8
1;115112;contenidoXXX;7
1;115113;contenidoXXX;4
3;115114;contenidoXXX;1
1;115115;contenidoXXX;10
3;115116;contenidoXXX;9
3;115117;contenidoXXX;5
3;115118;contenidoXXX;10
2;115104;contenidoXXX;6
1;115105;contenidoXXX;2
2;115106;contenidoXXX;10
2;115107;contenidoXXX;4
1;115108;contenidoXXX;3
1;115109;contenidoXXX;1
3;115110;contenidoXXX;8
2;115111;contenidoXXX;5
3;115112;contenidoXXX;4
2;115113;contenidoXXX;5
1;115114;contenidoXXX;7
1;115115;contenidoXXX;6
3;115116;contenidoXXX;1
2;115117;contenidoXXX;7
1;115118;contenidoXXX;7
2;115119;contenidoXXX;2
1;115120;contenidoXXX;10
2;115121;contenidoXXX;1
1;115122;contenidoXXX;3
1;115123;contenidoXXX;10
2;115124;contenidoXXX;1
1;115125;contenidoXXX;2
1;115126;contenidoXXX;3
2;115127;contenidoXXX;9