﻿cedula;nombre;fechanacimiento;id_municipio_inscripcion;email
100200;nombre100200;1958-12-3;5;nombre100200@sindir.co
100201;nombre100201;1958-12-4;5;nombre100201@sindir.co
100202;nombre100202;1958-12-5;5;nombre100202@sindir.co
100203;nombre100203;2000-7-17;5;nombre100203@sindir.co
100204;nombre100204;1998-10-5;3;nombre100204@sindir.co
100205;nombre100205;1998-7-11;5;nombre100205@sindir.co
100206;nombre100206;1982-11-3;5;nombre100206@sindir.co
100207;nombre100207;1984-1-12;3;nombre100207@sindir.co
100208;nombre100208;2000-2-14;4;nombre100208@sindir.co
100209;nombre100209;1995-12-3;3;nombre100209@sindir.co
100210;nombre100210;1989-12-6;3;nombre100210@sindir.co
100211;nombre100211;2000-8-6;5;nombre100211@sindir.co
100212;nombre100212;1984-2-16;3;nombre100212@sindir.co
100213;nombre100213;1996-9-4;3;nombre100213@sindir.co
100214;nombre100214;1982-6-14;4;nombre100214@sindir.co
100215;nombre100215;1986-7-20;4;nombre100215@sindir.co
100216;nombre100216;1998-6-18;4;nombre100216@sindir.co
100217;nombre100217;1980-10-5;3;nombre100217@sindir.co
100218;nombre100218;1997-9-12;4;nombre100218@sindir.co
100219;nombre100219;1986-2-12;4;nombre100219@sindir.co
100220;nombre100220;1986-10-10;5;nombre100220@sindir.co
100221;nombre100221;1981-12-14;3;nombre100221@sindir.co
100222;nombre100222;1991-5-13;5;nombre100222@sindir.co
100223;nombre100223;1985-4-4;3;nombre100223@sindir.co
100224;nombre100224;1998-6-10;3;nombre100224@sindir.co
100225;nombre100225;1983-8-5;5;nombre100225@sindir.co
100226;nombre100226;1990-11-8;5;nombre100226@sindir.co
100227;nombre100227;1991-12-7;3;nombre100227@sindir.co
100228;nombre100228;1989-10-2;3;nombre100228@sindir.co
100229;nombre100229;1982-1-16;4;nombre100229@sindir.co
100230;nombre100230;1989-9-20;5;nombre100230@sindir.co
100231;nombre100231;1990-12-19;5;nombre100231@sindir.co
100232;nombre100232;1987-6-2;3;nombre100232@sindir.co
100233;nombre100233;1995-3-15;5;nombre100233@sindir.co
100234;nombre100234;1995-3-8;4;nombre100234@sindir.co
100235;nombre100235;1997-4-4;5;nombre100235@sindir.co
100236;nombre100236;1989-7-4;3;nombre100236@sindir.co
100237;nombre100237;1988-1-14;5;nombre100237@sindir.co
100238;nombre100238;1995-8-6;3;nombre100238@sindir.co
100239;nombre100239;1994-1-20;4;nombre100239@sindir.co
100240;nombre100240;1989-6-17;5;nombre100240@sindir.co
100241;nombre100241;1982-11-14;5;nombre100241@sindir.co
100242;nombre100242;1990-8-20;128;nombre100242@sindir.co
100243;nombre100243;1994-4-10;129;nombre100243@sindir.co
100244;nombre100244;1987-2-8;128;nombre100244@sindir.co
100245;nombre100245;1991-1-17;129;nombre100245@sindir.co
100246;nombre100246;1993-10-12;128;nombre100246@sindir.co
100247;nombre100247;1990-4-10;128;nombre100247@sindir.co
100248;nombre100248;1980-3-12;128;nombre100248@sindir.co
100249;nombre100249;1996-3-2;128;nombre100249@sindir.co
100250;nombre100250;1996-7-14;128;nombre100250@sindir.co
100251;nombre100251;1982-5-16;128;nombre100251@sindir.co
100252;nombre100252;1987-3-15;128;nombre100252@sindir.co
100253;nombre100253;1996-5-3;128;nombre100253@sindir.co
100254;nombre100254;1998-6-6;128;nombre100254@sindir.co
100255;nombre100255;1991-12-5;128;nombre100255@sindir.co
100256;nombre100256;1999-6-19;128;nombre100256@sindir.co
100257;nombre100257;2000-12-13;128;nombre100257@sindir.co
100258;nombre100258;1984-8-16;128;nombre100258@sindir.co
100259;nombre100259;1994-2-7;129;nombre100259@sindir.co
100260;nombre100260;1997-11-16;129;nombre100260@sindir.co
100261;nombre100261;1988-9-14;129;nombre100261@sindir.co
100262;nombre100262;1993-3-17;129;nombre100262@sindir.co
100263;nombre100263;1997-1-17;129;nombre100263@sindir.co
100264;nombre100264;1995-7-6;129;nombre100264@sindir.co
100265;nombre100265;1998-5-5;129;nombre100265@sindir.co
100266;nombre100266;1999-8-9;129;nombre100266@sindir.co
100267;nombre100267;1982-12-5;129;nombre100267@sindir.co
100268;nombre100268;1988-6-18;129;nombre100268@sindir.co
100269;nombre100269;1991-9-6;129;nombre100269@sindir.co
100270;nombre100270;1991-8-11;129;nombre100270@sindir.co
100271;nombre100271;1994-7-17;129;nombre100271@sindir.co
100272;nombre100272;1982-11-5;129;nombre100272@sindir.co
100273;nombre100273;1996-12-18;129;nombre100273@sindir.co
100274;nombre100274;1985-2-3;129;nombre100274@sindir.co
100275;nombre100275;1986-6-18;129;nombre100275@sindir.co
100276;nombre100276;1986-6-19;129;nombre100276@sindir.co
100277;nombre100277;1990-3-17;129;nombre100277@sindir.co
100278;nombre100278;1996-4-15;129;nombre100278@sindir.co
100279;nombre100279;1986-5-20;129;nombre100279@sindir.co
100280;nombre100280;1998-8-18;129;nombre100280@sindir.co
100281;nombre100281;1995-8-19;129;nombre100281@sindir.co
100282;nombre100282;1982-9-17;129;nombre100282@sindir.co
100283;nombre100283;1991-2-11;129;nombre100283@sindir.co
100284;nombre100284;1999-2-20;129;nombre100284@sindir.co
100285;nombre100285;1996-3-12;129;nombre100285@sindir.co
100286;nombre100286;1997-4-12;129;nombre100286@sindir.co
100287;nombre100287;1989-5-19;129;nombre100287@sindir.co
100288;nombre100288;1992-10-13;129;nombre100288@sindir.co
100289;nombre100289;1988-6-20;129;nombre100289@sindir.co
100290;nombre100290;1980-11-12;129;nombre100290@sindir.co
100291;nombre100291;1995-10-12;129;nombre100291@sindir.co
100292;nombre100292;1996-1-9;129;nombre100292@sindir.co
100293;nombre100293;1994-6-3;129;nombre100293@sindir.co
100294;nombre100294;1990-1-15;129;nombre100294@sindir.co
100295;nombre100295;1988-11-13;129;nombre100295@sindir.co
100296;nombre100296;1980-3-5;129;nombre100296@sindir.co
100297;nombre100297;1995-1-7;129;nombre100297@sindir.co
100298;nombre100298;1989-11-3;129;nombre100298@sindir.co
100299;nombre100299;2000-11-17;129;nombre100299@sindir.co
100300;nombre100300;1983-8-9;129;nombre100300@sindir.co
100301;nombre100301;1995-12-11;129;nombre100301@sindir.co
100302;nombre100302;1992-8-15;129;nombre100302@sindir.co
100303;nombre100303;1986-7-13;129;nombre100303@sindir.co
100304;nombre100304;1988-12-9;129;nombre100304@sindir.co
100305;nombre100305;1998-3-4;130;nombre100305@sindir.co
100306;nombre100306;1988-8-9;130;nombre100306@sindir.co
100307;nombre100307;1986-12-2;130;nombre100307@sindir.co
100308;nombre100308;1995-11-17;130;nombre100308@sindir.co
100309;nombre100309;1995-8-20;130;nombre100309@sindir.co
100310;nombre100310;1982-11-3;130;nombre100310@sindir.co
100311;nombre100311;1988-9-9;130;nombre100311@sindir.co
100312;nombre100312;1986-7-17;130;nombre100312@sindir.co
100313;nombre100313;1994-12-2;130;nombre100313@sindir.co
100314;nombre100314;1991-3-3;130;nombre100314@sindir.co
100315;nombre100315;1991-5-14;130;nombre100315@sindir.co
100316;nombre100316;1985-7-10;135;nombre100316@sindir.co
100317;nombre100317;1982-7-2;135;nombre100317@sindir.co
100318;nombre100318;1995-8-7;135;nombre100318@sindir.co
100319;nombre100319;1995-7-17;135;nombre100319@sindir.co
100320;nombre100320;1982-4-16;135;nombre100320@sindir.co
100321;nombre100321;1991-7-14;135;nombre100321@sindir.co
100322;nombre100322;1983-4-13;135;nombre100322@sindir.co
100323;nombre100323;1994-2-14;135;nombre100323@sindir.co
100324;nombre100324;1992-12-3;135;nombre100324@sindir.co
100325;nombre100325;1993-6-12;135;nombre100325@sindir.co
100326;nombre100326;2000-6-6;135;nombre100326@sindir.co
100327;nombre100327;1995-10-17;135;nombre100327@sindir.co
100328;nombre100328;1983-2-3;135;nombre100328@sindir.co
100329;nombre100329;1988-7-6;135;nombre100329@sindir.co
100330;nombre100330;1996-12-17;137;nombre100330@sindir.co
100331;nombre100331;1992-2-18;137;nombre100331@sindir.co
100332;nombre100332;1997-3-2;137;nombre100332@sindir.co
100333;nombre100333;1982-6-10;137;nombre100333@sindir.co